^C:\USERS\AG030344\DOCUMENTS\VISUAL STUDIO 2010\PROJECTS\SEARCHES\SEARCHES\DEBUG\SEARCH.OBJ
C:\USERS\AG030344\DOCUMENTS\VISUAL STUDIO 2010\PROJECTS\SEARCHES\DEBUG\SEARCHES.ILK
C:\USERS\AG030344\DOCUMENTS\VISUAL STUDIO 2010\PROJECTS\SEARCHES\DEBUG\SEARCHES.EXE
C:\USERS\AG030344\DOCUMENTS\VISUAL STUDIO 2010\PROJECTS\SEARCHES\SEARCHES\DEBUG\SEARCHES.EXE.INTERMEDIATE.MANIFEST
C:\USERS\AG030344\DOCUMENTS\VISUAL STUDIO 2010\PROJECTS\SEARCHES\DEBUG\SEARCHES.PDB
